…
    ## 
    ## i Use `spec()` to retrieve the full column specification for this data.
    ## i Specify the column types or set `show_col_types = FALSE` to quiet this message.

``` r
# total and unsolved
homicide_df %>% 
  group_by(city_state) %>% 
  summarize(n = n(), unsolved = sum(resolution == "unsolved")) 
```

    ## # A tibble: 50 x 3
    ##    city_state        n unsolved
    ##    <chr>         <int>    <int>
    ##  1 AlbuquerqueNM   378      146
    ##  2 AtlantaGA       973      373
    ##  3 BaltimoreMD    2827     1825
    ##  4 Baton RougeLA   424      196
    ##  5 BirminghamAL    800      347
    ##  6 BostonMA        614      310
    ##  7 BuffaloNY       521      319
    ##  8 CharlotteNC     687      206
    ##  9 ChicagoIL      5535     4073
    ## 10 CincinnatiOH    694      309
    ## # ... with 40 more rows
…
homicide_df %>% 
  group_by(city_state) %>% 
  summarize(
    unsolved = sum(resolution == "unsolved"),
    n = n()
  ) %>% 
  mutate(
    test_results = map2(unsolved, n, prop.test),
         tidy_results = map(test_results, broom::tidy)) %>% 
  select(city_state , tidy_results) %>% 
  unnest(tidy_results) %>% 
  select(city_state, estimate, starts_with("conf"))
```

    ## # A tibble: 50 x 4
    ##    city_state    estimate conf.low conf.high
    ##    <chr>            <dbl>    <dbl>     <dbl>
    ##  1 AlbuquerqueNM    0.386    0.337     0.438
    ##  2 AtlantaGA        0.383    0.353     0.415
    ##  3 BaltimoreMD      0.646    0.628     0.663
    ##  4 Baton RougeLA    0.462    0.414     0.511
    ##  5 BirminghamAL     0.434    0.399     0.469
    ##  6 BostonMA         0.505    0.465     0.545
    ##  7 BuffaloNY        0.612    0.569     0.654
    ##  8 CharlotteNC      0.300    0.266     0.336
    ##  9 ChicagoIL        0.736    0.724     0.747
    ## 10 CincinnatiOH     0.445    0.408     0.483
    ## # ... with 40 more rows
…
